…
df

## # A tibble: 50 x 8
##    class name   sex   chinese  math english moral science
##    <chr> <chr>  <chr>   <dbl> <dbl>   <dbl> <dbl>   <dbl>
##  1 六1班 何娜   女         87    92      79     9      10
##  2 六1班 黄才菊 女         95    77      75     8       9
##  3 六1班 陈芳妹 女         79    87      66     9      10
##  4 六1班 陈学勤 男         82    79      66     9      10
##  5 六1班 陈祝贞 女         76    79      67     8      10
##  6 六1班 何小薇 女         83    73      65     8       9
##  7 六1班 雷旺   男         56    80      68     8       9
##  8 六1班 陈欣越 男         57    80      60     9       9
##  9 六1班 黄亦婷 女         77    63      54     8      10
## 10 六1班 陈媚   女         68    55      66     8       9
## # ... with 40 more rows

创建新列

用 dplyr 包中的 mutate() 创建或修改列；若 transmute() 则只返回增加的
新列。

若只给新列 1 个值，则循环使用得到值相同的一列:

df %>%
 mutate(new_col = 5)

## # A tibble: 50 x 9
##    class name   sex   chinese  math english moral science new_col
##    <chr> <chr>  <chr>   <dbl> <dbl>   <dbl> <dbl>   <dbl>   <dbl>
##  1 六1班 何娜   女         87    92      79     9      10       5
##  2 六1班 黄才菊 女         95    77      75     8       9       5
##  3 六1班 陈芳妹 女         79    87      66     9      10       5
##  4 六1班 陈学勤 男         82    79      66     9      10       5
##  5 六1班 陈祝贞 女         76    79      67     8      10       5
##  6 六1班 何小薇 女         83    73      65     8       9       5
##  7 六1班 雷旺   男         56    80      68     8       9       5
##  8 六1班 陈欣越 男         57    80      60     9       9       5
##  9 六1班 黄亦婷 女         77    63      54     8      10       5
## 10 六1班 陈媚   女         68    55      66     8       9       5
## # ... with 40 more rows

正常是以长度等于行数的向量赋值：

df %>%
 mutate(new_col = 1:n())

## # A tibble: 50 x 9
##    class name   sex   chinese  math english moral science new_col
##    <chr> <chr>  <chr>   <dbl> <dbl>   <dbl> <dbl>   <dbl>   <int>
##  1 六1班 何娜   女         87    92      79     9      10       1
##  2 六1班 黄才菊 女         95    77      75     8       9       2
##  3 六1班 陈芳妹 女         79    87      66     9      10       3
##  4 六1班 陈学勤 男         82    79      66     9      10       4
##  5 六1班 陈祝贞 女         76    79      67     8      10       5
##  6 六1班 何小薇 女         83    73      65     8       9       6
##  7 六1班 雷旺   男         56    80      68     8       9       7
##  8 六1班 陈欣越 男         57    80      60     9       9       8
##  9 六1班 黄亦婷 女         77    63      54     8      10       9
## 10 六1班 陈媚   女         68    55      66     8       9      10
## # ... with 40 more rows

注： n() 返回当前分组的样本数, 未分组则为总行数。

计算新列

用数据框的列计算新列，若修改当前列，只需要赋值给原列名。

df %>%
 mutate(total = chinese + math + english + moral + science)

## # A tibble: 50 x 9
##    class name   sex   chinese  math english moral science total
##    <chr> <chr>  <chr>   <dbl> <dbl>   <dbl> <dbl>   <dbl> <dbl>
##  1 六1班 何娜   女         87    92      79     9      10   277
##  2 六1班 黄才菊 女         95    77      75     8       9   264
##  3 六1班 陈芳妹 女         79    87      66     9      10   251
##  4 六1班 陈学勤 男         82    79      66     9      10   246
##  5 六1班 陈祝贞 女         76    79      67     8      10   240
##  6 六1班 何小薇 女         83    73      65     8       9   238
##  7 六1班 雷旺   男         56    80      68     8       9   221
##  8 六1班 陈欣越 男         57    80      60     9       9   215
##  9 六1班 黄亦婷 女         77    63      54     8      10   212
## 10 六1班 陈媚   女         68    55      66     8       9   206
## # ... with 40 more rows
…
在同一个 mutate() 中可以同时创建或计算多个列，它们是从前往后依次计算，
所以可以使用前面新创建的列：

计算 df 中 math 列的中位数；

创建标记 math 是否大于中位数的逻辑值列；

用 as.numeric() 将 TRUE/FALSE 转化为 1/0

df %>%
 mutate(med_math = median(math),
 label = math > med_math,
 label = as.numeric(label))

## # A tibble: 50 x 10
##    class name   sex   chinese  math english moral science med_math label
##    <chr> <chr>  <chr>   <dbl> <dbl>   <dbl> <dbl>   <dbl>    <dbl> <dbl>
##  1 六1班 何娜   女         87    92      79     9      10     72.5     1
##  2 六1班 黄才菊 女         95    77      75     8       9     72.5     1
##  3 六1班 陈芳妹 女         79    87      66     9      10     72.5     1
##  4 六1班 陈学勤 男         82    79      66     9      10     72.5     1
##  5 六1班 陈祝贞 女         76    79      67     8      10     72.5     1
##  6 六1班 何小薇 女         83    73      65     8       9     72.5     1
##  7 六1班 雷旺   男         56    80      68     8       9     72.5     1
##  8 六1班 陈欣越 男         57    80      60     9       9     72.5     1
##  9 六1班 黄亦婷 女         77    63      54     8      10     72.5     0
## 10 六1班 陈媚   女         68    55      66     8       9     72.5     0
## # ... with 40 more rows

修改多列

结合 across() 和选择列语法可以应用函数到多列，从而实现同时修改多列。

应用函数到所有列

将所有列转化为字符型：

df %>% 
 mutate(across(everything(), as.character))

## # A tibble: 50 x 8
##    class name   sex   chinese math  english moral science
##    <chr> <chr>  <chr> <chr>   <chr> <chr>   <chr> <chr>  
##  1 六1班 何娜   女    87      92    79      9     10     
##  2 六1班 黄才菊 女    95      77    75      8     9      
##  3 六1班 陈芳妹 女    79      87    66      9     10     
##  4 六1班 陈学勤 男    82      79    66      9     10     
##  5 六1班 陈祝贞 女    76      79    67      8     10     
##  6 六1班 何小薇 女    83      73    65      8     9      
##  7 六1班 雷旺   男    56      80    68      8     9      
##  8 六1班 陈欣越 男    57      80    60      9     9      
##  9 六1班 黄亦婷 女    77      63    54      8     10     
## 10 六1班 陈媚   女    68      55    66      8     9      
## # ... with 40 more rows

应用函数到满足条件的列

对数值列做归一化：

rescale <- function(x) {
 rng <- range(x, na.rm = TRUE)
 (x - rng[1]) / (rng[2] - rng[1])
}
df %>% 
 mutate(across(where(is.numeric), rescale))

## # A tibble: 50 x 8
##    class name   sex   chinese  math english moral science
##    <chr> <chr>  <chr>   <dbl> <dbl>   <dbl> <dbl>   <dbl>
##  1 六1班 何娜   女      0.843 0.974   1     0.875   1    
##  2 六1班 黄才菊 女      1     0.776   0.926 0.75    0.833
##  3 六1班 陈芳妹 女      0.686 0.908   0.759 0.875   1    
##  4 六1班 陈学勤 男      0.745 0.803   0.759 0.875   1    
##  5 六1班 陈祝贞 女      0.627 0.803   0.778 0.75    1    
##  6 六1班 何小薇 女      0.765 0.724   0.741 0.75    0.833
##  7 六1班 雷旺   男      0.235 0.816   0.796 0.75    0.833
##  8 六1班 陈欣越 男      0.255 0.816   0.648 0.875   0.833
##  9 六1班 黄亦婷 女      0.647 0.592   0.537 0.75    1    
## 10 六1班 陈媚   女      0.471 0.487   0.759 0.75    0.833
## # ... with 40 more rows

应用函数到指定的列

在不影响其它数值列的情况下，将 iris 中的 length 和 width 测量单位从厘米变成
毫米：

iris %>% as_tibble() %>% 
 mutate(across(contains("Length") | contains("Width"), ~ .*10))

## # A tibble: 150 x 5
##    Sepal.Length Sepal.Width Petal.Length Petal.Width Species
##           <dbl>       <dbl>        <dbl>       <dbl> <fct>  
##  1           51          35           14           2 setosa 
##  2           49          30           14           2 setosa 
##  3           47          32           13           2 setosa 
##  4           46          31           15           2 setosa 
##  5           50          36           14           2 setosa 
##  6           54          39           17           4 setosa 
##  7           46          34           14           3 setosa 
##  8           50          34           15           2 setosa 
##  9           44          29           14           2 setosa 
## 10           49          31           15           1 setosa 
## # ... with 140 more rows

替换 NA

replace_na()

实现用同一个值替换一列中的所有 NA 值，该函数接受一个命名列表，其成分为
“列名=替换值”：

starwars %>%
 replace_na(list(hair_color = "UNKNOWN",
 birth_year = 99999))

## # A tibble: 87 x 14
##    name    height  mass hair_color  skin_color eye_color birth_year sex   gender
##    <chr>    <int> <dbl> <chr>       <chr>      <chr>          <dbl> <chr> <chr> 
##  1 Luke S~    172    77 blond       fair       blue            19   male  mascu~
##  2 C-3PO      167    75 UNKNOWN     gold       yellow         112   none  mascu~
##  3 R2-D2       96    32 UNKNOWN     white, bl~ red             33   none  mascu~
##  4 Darth ~    202   136 none        white      yellow          41.9 male  mascu~
##  5 Leia O~    150    49 brown       light      brown           19   fema~ femin~
##  6 Owen L~    178   120 brown, grey light      blue            52   male  mascu~
##  7 Beru W~    165    75 brown       light      blue            47   fema~ femin~
##  8 R5-D4       97    32 UNKNOWN     white, red red          99999   none  mascu~
##  9 Biggs ~    183    84 black       light      brown           24   male  mascu~
## 10 Obi-Wa~    182    77 auburn, wh~ fair       blue-gray       57   male  mascu~
## # ... with 77 more rows, and 5 more variables: homeworld <chr>, species <chr>,
## #   films <list>, vehicles <list>, starships <list>
…
重塑为更具可读性的长表：

df_grp %>% pivot_longer(-class, 
 names_to = c("Vars", ".value"), 
 names_sep = "_")

## # A tibble: 25 x 5
##    class Vars      sum  mean   min
##    <chr> <chr>   <dbl> <dbl> <dbl>
##  1 六1班 chinese   760  76      56
##  2 六1班 math      765  76.5    55
##  3 六1班 english   666  66.6    54
##  4 六1班 moral      84   8.4     8
##  5 六1班 science    95   9.5     9
##  6 六2班 chinese   836  83.6    66
##  7 六2班 math      736  73.6    41
##  8 六2班 english   540  54      25
##  9 六2班 moral      88   8.8     6
## 10 六2班 science    93   9.3     7
## # ... with 15 more rows
…
## # A tibble: 4 x 2
##   math_level     n
##   <fct>      <int>
## 1 [0,60)        15
## 2 [60,75)       12
## 3 [75,80)        5
## 4 [80,100)      18

用 add_count()和 add_tally() 可为数据集增加一列按 … 分组的计数：

df %>%
 add_count(class, sex)

## # A tibble: 50 x 9
##    class name   sex   chinese  math english moral science     n
##    <chr> <chr>  <chr>   <dbl> <dbl>   <dbl> <dbl>   <dbl> <int>
##  1 六1班 何娜   女         87    92      79     9      10     7
##  2 六1班 黄才菊 女         95    77      75     8       9     7
##  3 六1班 陈芳妹 女         79    87      66     9      10     7
##  4 六1班 陈学勤 男         82    79      66     9      10     3
##  5 六1班 陈祝贞 女         76    79      67     8      10     7
##  6 六1班 何小薇 女         83    73      65     8       9     7
##  7 六1班 雷旺   男         56    80      68     8       9     3
##  8 六1班 陈欣越 男         57    80      60     9       9     3
##  9 六1班 黄亦婷 女         77    63      54     8      10     7
## 10 六1班 陈媚   女         68    55      66     8       9     7
## # ... with 40 more rows
按行汇总

通常的数据操作逻辑都是按列方式（colwise），这使得按行汇总很困难。

dplyr 包提供了 rowwise() 函数为数据框创建按行方式（rowwise），它不是
真的改变数据框，只是创建了按行信息。

使用 rowwise() 后，就会改变数据框的操作逻辑：

rf = df %>% 
 rowwise()
rf %>% 
 mutate(total = sum(c(chinese, math, english)))

## # A tibble: 50 x 9
## # Rowwise: 
##    class name   sex   chinese  math english moral science total
##    <chr> <chr>  <chr>   <dbl> <dbl>   <dbl> <dbl>   <dbl> <dbl>
##  1 六1班 何娜   女         87    92      79     9      10   258
##  2 六1班 黄才菊 女         95    77      75     8       9   247
##  3 六1班 陈芳妹 女         79    87      66     9      10   232
##  4 六1班 陈学勤 男         82    79      66     9      10   227
##  5 六1班 陈祝贞 女         76    79      67     8      10   222
##  6 六1班 何小薇 女         83    73      65     8       9   221
##  7 六1班 雷旺   男         56    80      68     8       9   204
##  8 六1班 陈欣越 男         57    80      60     9       9   197
##  9 六1班 黄亦婷 女         77    63      54     8      10   194
## 10 六1班 陈媚   女         68    55      66     8       9   189
## # ... with 40 more rows

函数 c_across() 是为按行方式（rowwise）在选定的列范围汇总数据而设计
的，它没有提供 .fns 参数，只能选择列

rf %>% 
 mutate(total = sum(c_across(where(is.numeric))))

## # A tibble: 50 x 9
## # Rowwise: 
##    class name   sex   chinese  math english moral science total
##    <chr> <chr>  <chr>   <dbl> <dbl>   <dbl> <dbl>   <dbl> <dbl>
##  1 六1班 何娜   女         87    92      79     9      10   277
##  2 六1班 黄才菊 女         95    77      75     8       9   264
##  3 六1班 陈芳妹 女         79    87      66     9      10   251
##  4 六1班 陈学勤 男         82    79      66     9      10   246
##  5 六1班 陈祝贞 女         76    79      67     8      10   240
##  6 六1班 何小薇 女         83    73      65     8       9   238
##  7 六1班 雷旺   男         56    80      68     8       9   221
##  8 六1班 陈欣越 男         57    80      60     9       9   215
##  9 六1班 黄亦婷 女         77    63      54     8      10   212
## 10 六1班 陈媚   女         68    55      66     8       9   206
## # ... with 40 more rows

若只是做按行求和或均值，直接用 rowSums() / rowMeans() 速度更快（不
需要分割-汇总-合并），这里的 rowwise 行化后提供可以做更多的按行汇总的可
能。

df %>% 
 mutate(total = rowSums(across(where(is.numeric))))

## # A tibble: 50 x 9
##    class name   sex   chinese  math english moral science total
##    <chr> <chr>  <chr>   <dbl> <dbl>   <dbl> <dbl>   <dbl> <dbl>
##  1 六1班 何娜   女         87    92      79     9      10   277
##  2 六1班 黄才菊 女         95    77      75     8       9   264
##  3 六1班 陈芳妹 女         79    87      66     9      10   251
##  4 六1班 陈学勤 男         82    79      66     9      10   246
##  5 六1班 陈祝贞 女         76    79      67     8      10   240
##  6 六1班 何小薇 女         83    73      65     8       9   238
##  7 六1班 雷旺   男         56    80      68     8       9   221
##  8 六1班 陈欣越 男         57    80      60     9       9   215
##  9 六1班 黄亦婷 女         77    63      54     8      10   212
## 10 六1班 陈媚   女         68    55      66     8       9   206
## # ... with 40 more rows

按行方式（rowwise）可以理解为一种特殊的分组：每一行作为一组。为
rowwise() 提供行 ID，用 summarise() 做汇总更能体会这一点：

df %>% 
 rowwise(name) %>% 
 summarise(total = sum(c_across(where(is.numeric))))

## `summarise()` has grouped output by 'name'. You can override using the `.groups` argument.

## # A tibble: 50 x 2
## # Groups:   name [50]
##    name   total
##    <chr>  <dbl>
##  1 何娜     277
##  2 黄才菊   264
##  3 陈芳妹   251
##  4 陈学勤   246
##  5 陈祝贞   240
##  6 何小薇   238
##  7 雷旺     221
##  8 陈欣越   215
##  9 黄亦婷   212
## 10 陈媚     206
## # ... with 40 more rows
…
聚合函数如 sum() 和 mean() 接受 n 个输入，返回一个值。窗口函数是聚合函
数的变体：接受 n 个输入，返回 n 个值。

例如，cumsum()、cummean()、rank()、lead()、lag()等。

排名和排序函数

共有 6 个函数，只介绍 min_rank()：从小到大排名（ties.method=“min”)，若
要从大到小排名需要套一个 desc()。

df %>% 
 mutate(ranks = min_rank(desc(math))) %>% 
 arrange(ranks)

## # A tibble: 50 x 9
##    class name   sex   chinese  math english moral science ranks
##    <chr> <chr>  <chr>   <dbl> <dbl>   <dbl> <dbl>   <dbl> <int>
##  1 六4班 周婵   女         92    94      77    10       9     1
##  2 六4班 陈丽丽 女         87    93      61     8       6     2
##  3 六1班 何娜   女         87    92      79     9      10     3
##  4 六5班 符苡榕 女         85    89      76     9      10     4
##  5 六2班 黄祖娜 女         94    88      75    10      10     5
##  6 六1班 陈芳妹 女         79    87      66     9      10     6
##  7 六4班 李小龄 男         90    87      69    10      10     6
##  8 六2班 徐雅琦 女         92    86      72    10       9     8
##  9 六2班 徐达政 男         90    86      72     9      10     8
## 10 六4班 杨昌晟 男         84    85      64     8      10    10
## # ... with 40 more rows

移位：lag() 和 lead()

df %>% 
 mutate(math_lag = lag(math), math_delta = math - lag(math)) %>% 
 select(math, math_lag, math_delta)

## # A tibble: 50 x 3
##     math math_lag math_delta
##    <dbl>    <dbl>      <dbl>
##  1    92       NA         NA
##  2    77       92        -15
##  3    87       77         10
##  4    79       87         -8
##  5    79       79          0
##  6    73       79         -6
##  7    80       73          7
##  8    80       80          0
##  9    63       80        -17
## 10    55       63         -8
## # ... with 40 more rows
…
